SA_DC_3_CaseStudy
…
Loading the required packages and the Data

library(ggplot2)
library(dplyr)
library(tidytext)
library(tidyr)
library(lubridate)

load(file="climate_text.rda")

Exploring the Data

climate_text

## # A tibble: 593 x 4
##    station show                                 show_date           text  
##    <chr>   <chr>                                <dttm>              <chr> 
##  1 MSNBC   Morning Meeting                      2009-09-22 13:00:00 the i~
##  2 MSNBC   Morning Meeting                      2009-10-23 13:00:00 corpo~
##  3 CNN     CNN Newsroom                         2009-12-03 20:00:00 he sa~
##  4 CNN     American Morning                     2009-12-07 11:00:00 espec~
##  5 MSNBC   Morning Meeting                      2009-12-08 14:00:00 lots ~
##  6 MSNBC   Countdown With Keith Olbermann       2009-12-10 06:00:00 so th~
##  7 CNN     Sanjay Gupta MD                      2009-12-12 12:30:00 let m~
##  8 CNN     The Situation Room With Wolf Blitzer 2009-12-16 21:00:00 other~
##  9 MSNBC   Countdown With Keith Olbermann       2009-12-19 01:00:00 let d~
## 10 MSNBC   The Rachel Maddow Show               2010-01-08 04:00:00 you k~
## # ... with 583 more rows
…
## Classes 'tbl_df', 'tbl' and 'data.frame':    593 obs. of  4 variables:
##  $ station  : chr  "MSNBC" "MSNBC" "CNN" "CNN" ...
##  $ show     : chr  "Morning Meeting" "Morning Meeting" "CNN Newsroom" "American Morning" ...
##  $ show_date: POSIXct, format: "2009-09-22 13:00:00" "2009-10-23 13:00:00" ...
##  $ text     : chr  "the interior positively oozes class raves car magazine slick and sensuous boasts the washington times the most "| __truncated__ "corporations have withdrawn from the chamber of commerce because of their disagreement with the chamber on the "| __truncated__ "he says he was bumped by the greeter but cops didn't buy it and the guy is now under arrest all right you're lo"| __truncated__ "especially at at time now where the climate change conference is beginning in copenhagen a lot of the world pay"| __truncated__ ...

Tidying the Data and performing a more EDA

tidy_tv <- climate_text %>%
  # Transforming the non-tidy text data to tidy text data
  unnest_tokens(word,text)

tidy_tv

## # A tibble: 41,076 x 4
##    station show            show_date           word      
##    <chr>   <chr>           <dttm>              <chr>     
##  1 MSNBC   Morning Meeting 2009-09-22 13:00:00 the       
##  2 MSNBC   Morning Meeting 2009-09-22 13:00:00 interior  
##  3 MSNBC   Morning Meeting 2009-09-22 13:00:00 positively
##  4 MSNBC   Morning Meeting 2009-09-22 13:00:00 oozes     
##  5 MSNBC   Morning Meeting 2009-09-22 13:00:00 class     
##  6 MSNBC   Morning Meeting 2009-09-22 13:00:00 raves     
##  7 MSNBC   Morning Meeting 2009-09-22 13:00:00 car       
##  8 MSNBC   Morning Meeting 2009-09-22 13:00:00 magazine  
##  9 MSNBC   Morning Meeting 2009-09-22 13:00:00 slick     
## 10 MSNBC   Morning Meeting 2009-09-22 13:00:00 and       
## # ... with 41,066 more rows

Question :what words are most common when discussing climate change on TV news, as well as the total number of words from each station?

tidy_tv %>% 
    anti_join(stop_words) %>%
    # Count by word with sort = TRUE
    count(word, sort = TRUE)

## # A tibble: 3,699 x 2
##    word          n
##    <chr>     <int>
##  1 climate    1627
##  2 change     1615
##  3 people      139
##  4 real        125
##  5 president   112
##  6 global      107
##  7 issue        87
##  8 trump        86
##  9 warming      85
## 10 issues       69
## # ... with 3,689 more rows
…
Performing Sentiment Analysis

tv_sentiment <- tidy_tv %>% 
  # Group by station
  group_by(station) %>% 
  # Define a new column station_total
  mutate(station_total = n()) %>%
  ungroup() %>%
  # Implement sentiment analysis with the NRC lexicon
  inner_join(get_sentiments("nrc"))

tv_sentiment

## # A tibble: 10,175 x 6
##    station show        show_date           word    station_total sentiment
##    <chr>   <chr>       <dttm>              <chr>           <int> <chr>    
##  1 MSNBC   Morning Me~ 2009-09-22 13:00:00 interi~         19487 disgust  
##  2 MSNBC   Morning Me~ 2009-09-22 13:00:00 interi~         19487 positive 
##  3 MSNBC   Morning Me~ 2009-09-22 13:00:00 interi~         19487 trust    
##  4 MSNBC   Morning Me~ 2009-09-22 13:00:00 sensuo~         19487 joy      
##  5 MSNBC   Morning Me~ 2009-09-22 13:00:00 sensuo~         19487 positive 
##  6 MSNBC   Morning Me~ 2009-09-22 13:00:00 striki~         19487 positive 
##  7 MSNBC   Morning Me~ 2009-09-22 13:00:00 join            19487 positive 
##  8 MSNBC   Morning Me~ 2009-09-22 13:00:00 presid~         19487 positive 
##  9 MSNBC   Morning Me~ 2009-09-22 13:00:00 presid~         19487 trust    
## 10 MSNBC   Morning Me~ 2009-09-22 13:00:00 change          19487 fear     
## # ... with 10,165 more rows
…
